<svg width="177" height="171" viewBox="0 0 177 171" fill="none" xmlns="http://www.w3.org/2000/svg">
<ellipse cx="88.5" cy="85.5" rx="88.5" ry="85.5" fill="#F0F0F0"/>
<rect x="59" y="49.6346" width="56.1532" height="69.7828" rx="2" fill="#a19181" stroke="#a19181" stroke-width="2" stroke-linecap="round" stroke-linejoin="round"/>
<rect x="64.3605" y="54.9951" width="45.4322" height="55.4272" fill="white"/>
<path d="M82.5334 68.6248H104.341" stroke="#AAAAAA" stroke-width="3"/>
<path d="M82.5334 83.163H104.341" stroke="#AAAAAA" stroke-width="3" stroke-linejoin="round"/>
<path d="M82.5334 96.7927H104.341" stroke="#AAAAAA" stroke-width="3" stroke-linejoin="round"/>
<path d="M69.8124 82.9806L72.7861 86.7976L77.9902 79.5284" stroke="#AAAAAA" stroke-width="3"/>
<path d="M69.8124 67.9651L72.7861 72.2593L77.9902 64.0815" stroke="#AAAAAA" stroke-width="3"/>
<path d="M128.358 82.5061L124.11 130.862L118.879 130.404L123.127 82.0485L126.603 74.9853L128.358 82.5061Z" fill="#a19181" stroke="#a19181" stroke-width="2" stroke-linecap="round" stroke-linejoin="round"/>
<rect x="78.0815" y="46" width="18.8988" height="9.81236" fill="#a19181" stroke="#a19181" stroke-width="2" stroke-linecap="round" stroke-linejoin="round"/>
</svg>
