<svg width="177" height="171" viewBox="0 0 177 171" fill="none" xmlns="http://www.w3.org/2000/svg">
<ellipse cx="88.5" cy="85.5" rx="88.5" ry="85.5" fill="#F0F0F0"/>
<rect x="85.3596" y="44.7191" width="7.55056" height="8.49438" fill="#a19181"/>
<path d="M125 86.7191C125 106.266 109.154 122.112 89.6067 122.112C70.0596 122.112 54.2135 106.266 54.2135 86.7191C54.2135 67.172 70.0596 51.3259 89.6067 51.3259C109.154 51.3259 125 67.172 125 86.7191Z" fill="#a19181" stroke="#a19181" stroke-width="2" stroke-linecap="round" stroke-linejoin="round"/>
<path d="M119.337 86.7191C119.337 103.139 106.026 116.449 89.6067 116.449C73.1871 116.449 59.8764 103.139 59.8764 86.7191C59.8764 70.2995 73.1871 56.9888 89.6067 56.9888C106.026 56.9888 119.337 70.2995 119.337 86.7191Z" fill="white"/>
<path d="M90.0786 87.191C90.0786 87.7123 89.6561 88.1348 89.1348 88.1348C88.6136 88.1348 88.191 87.7123 88.191 87.191C88.191 86.6698 88.6136 86.2472 89.1348 86.2472C89.6561 86.2472 90.0786 86.6698 90.0786 87.191Z" fill="#a19181"/>
<path d="M89.1348 71.1461V87.191" stroke="#a19181" stroke-width="4" stroke-linecap="round" stroke-linejoin="round"/>
<path d="M89.1348 87.191L100.48 98.5365" stroke="#a19181" stroke-width="4" stroke-linecap="round" stroke-linejoin="round"/>
<rect x="80.6966" y="41" width="16.8764" height="6.49438" rx="1" fill="#a19181" stroke="#a19181" stroke-width="2"/>
<rect x="63.1663" y="56.2281" width="6.10533" height="5.68585" rx="1" transform="rotate(-37.5566 63.1663 56.2281)" fill="#a19181" stroke="#a19181" stroke-width="2"/>
<rect x="41" y="74.9213" width="32.0899" height="3.77528" fill="#AAAAAA"/>
<rect x="43.8315" y="83.4157" width="29.2584" height="3.77528" fill="#AAAAAA"/>
<rect x="46.6629" y="92.8539" width="26.427" height="3.77528" fill="#AAAAAA"/>
</svg>
