<svg width="177" height="171" viewBox="0 0 177 171" fill="none" xmlns="http://www.w3.org/2000/svg">
<ellipse cx="88.5" cy="85.5" rx="88.5" ry="85.5" fill="#F0F0F0"/>
<path d="M93.9484 47.3835C94.2258 47.6423 94.6257 47.7218 94.981 47.5889L103.241 44.4986L106.896 52.5243C107.053 52.8695 107.392 53.096 107.771 53.1092L116.585 53.415L116.891 62.2286C116.904 62.6077 117.131 62.9467 117.476 63.104L125.501 66.7593L122.411 75.019C122.278 75.3743 122.358 75.7742 122.617 76.0516L128.632 82.5L122.617 88.9484C122.358 89.2258 122.278 89.6257 122.411 89.981L125.501 98.2407L117.476 101.896C117.131 102.053 116.904 102.392 116.891 102.771L116.585 111.585L107.771 111.891C107.392 111.904 107.053 112.131 106.896 112.476L103.241 120.501L94.981 117.411C94.6257 117.278 94.2258 117.358 93.9484 117.617L87.5 123.632L81.0516 117.617C80.7742 117.358 80.3743 117.278 80.019 117.411L71.7593 120.501L68.104 112.476C67.9467 112.131 67.6077 111.904 67.2286 111.891L58.415 111.585L58.1092 102.771C58.096 102.392 57.8695 102.053 57.5243 101.896L49.4986 98.2407L52.5889 89.981C52.7218 89.6257 52.6423 89.2258 52.3835 88.9484L46.3676 82.5L52.3835 76.0516C52.6423 75.7742 52.7218 75.3743 52.5889 75.019L49.4986 66.7593L57.5243 63.104C57.8695 62.9467 58.096 62.6077 58.1092 62.2286L58.415 53.415L67.2286 53.1092C67.6077 53.096 67.9467 52.8695 68.104 52.5243L71.7593 44.4986L80.019 47.5889C80.3743 47.7218 80.7742 47.6423 81.0516 47.3835L87.5 41.3676L93.9484 47.3835Z" fill="#a19181" stroke="#a19181" stroke-width="2" stroke-linecap="round" stroke-linejoin="round"/>
<path d="M80.7313 94.4729H77.3498V98.1677H66.7222V74.1516H77.3498V77.8463H80.7313C80.7313 77.8463 84.2626 72.2823 85.562 70.9186C88.8516 67.4664 91.2424 63.6572 90.8758 56.1395C99.9725 54.6605 96.1896 73.2279 96.1896 73.2279H104.885C109.233 73.2279 109.233 79.6195 105.851 79.6195C109.233 79.6195 108.75 86.0857 105.368 86.0857C108.75 86.0857 108.75 92.5513 104.402 92.5513C107.783 92.5513 107.3 98.5556 103.919 98.5556H85.562L80.7313 94.4729Z" fill="white"/>
<path d="M77.3498 94.4729V77.8463M77.3498 94.4729H80.7313L85.562 98.5556C85.562 98.5556 99.0881 98.5556 103.919 98.5556C107.3 98.5556 107.783 92.5513 104.402 92.5513C108.75 92.5513 108.75 86.0857 105.368 86.0857C108.75 86.0857 109.233 79.6195 105.851 79.6195C109.233 79.6195 109.233 73.2279 104.885 73.2279H96.1896C96.1896 73.2279 99.9725 54.6605 90.8758 56.1395C91.2424 63.6572 88.8516 67.4664 85.562 70.9186C84.2626 72.2823 80.7313 77.8463 80.7313 77.8463C80.7313 77.8463 79.9212 77.8463 77.3498 77.8463M77.3498 94.4729V98.1677H66.7222V74.1516H77.3498V77.8463" stroke="#a19181" stroke-width="2" stroke-linecap="round" stroke-linejoin="round"/>
</svg>
